/c/en/clonological,/c/en/clonological
/c/en/clonology,/c/en/clonological
/c/en/clone,/c/en/clonological
/c/en/anticloning,/c/en/clonological
/c/en/paraclone,/c/en/clonological
/c/en/holoclone,/c/en/clonological
/c/en/meroclone,/c/en/clonological
/c/en/telecloning,/c/en/clonological
/c/en/polyclone,/c/en/clonological
/c/en/clonogenicity,/c/en/clonological
/c/en/famiclone,/c/en/clonological
/c/en/cloners,/c/en/clonological
/c/en/cloner,/c/en/clonological
/c/en/clonemate,/c/en/clonological
/c/en/reproductive_clone,/c/en/clonological
/c/en/hybridogenesis,/c/en/clonological
/c/en/mericlone,/c/en/clonological
/c/en/subclonal,/c/en/clonological
/c/en/molecular_knife,/c/en/clonological
/c/en/midblastula,/c/en/clonological
/c/en/endoduplication,/c/en/clonological
/c/en/clooney,/c/en/clonological
/c/en/clonal,/c/en/clonological
/c/en/embryonic_cell,/c/en/clonological
/c/en/craniological,/c/en/clonological
/c/en/monocopy,/c/en/clonological
/c/en/duplicata,/c/en/clonological
/c/en/open_read_frame,/c/en/clonological
/c/en/duplicate,/c/en/clonological
/c/en/biosequence,/c/en/clonological
/c/en/embryo,/c/en/clonological
/c/en/cisgenesis,/c/en/clonological
/c/en/biclonal,/c/en/clonological
/c/en/copy_number_polymorphism,/c/en/clonological
/c/en/histodifferentiation,/c/en/clonological
/c/en/monoclonal,/c/en/clonological
/c/en/isogroup,/c/en/clonological
/c/en/heterokaryon,/c/en/clonological
/c/en/bithorax_complex,/c/en/clonological
/c/en/pseudembryo,/c/en/clonological
/c/en/ical,/c/en/clonological
/c/en/copy_number_variation,/c/en/clonological
/c/en/retroduplication,/c/en/clonological
/c/en/marker_gene,/c/en/clonological
/c/en/nick_translation,/c/en/clonological
/c/en/haplodeficient,/c/en/clonological
/c/en/nonclonal,/c/en/clonological
/c/en/subclone,/c/en/clonological
/c/en/pararetrovirus,/c/en/clonological
/c/en/craniologically,/c/en/clonological
/c/en/arkeological,/c/en/clonological
/c/en/abembryonic,/c/en/clonological
/c/en/acanthological,/c/en/clonological
/c/en/embryoblast,/c/en/clonological
/c/en/parthenote,/c/en/clonological
/c/en/oölogical,/c/en/clonological
/c/en/monembryony,/c/en/clonological
/c/en/arkeology,/c/en/clonological
/c/en/somatic_cell,/c/en/clonological
/c/en/blastodisk,/c/en/clonological
/c/en/giant_virus,/c/en/clonological
/c/en/junk_dna,/c/en/clonological
/c/en/sendai_virus,/c/en/clonological
/c/en/antigenome,/c/en/clonological
/c/en/genetic_material,/c/en/clonological
/c/en/genomicist,/c/en/clonological
/c/en/gynogenesis,/c/en/clonological
/c/en/transgenic,/c/en/clonological
/c/en/read_frame,/c/en/clonological
/c/en/isogeneic,/c/en/clonological
/c/en/nullizygous,/c/en/clonological
/c/en/lead_strand,/c/en/clonological
/c/en/lag_strand,/c/en/clonological
/c/en/génome,/c/en/clonological
/c/en/duplicado,/c/en/clonological
/c/en/genome,/c/en/clonological
/c/en/proembryo,/c/en/clonological
/c/en/pribnow_box,/c/en/clonological
/c/en/phylotype,/c/en/clonological
/c/en/agamospermy,/c/en/clonological
/c/en/nucleotidylexotransferase,/c/en/clonological
/c/en/codeletion,/c/en/clonological
/c/en/genetic_code,/c/en/clonological
/c/en/spadetail,/c/en/clonological
/c/en/demogenetic,/c/en/clonological
/c/en/endopolyploidy,/c/en/clonological
/c/en/bioroid,/c/en/clonological
/c/en/metagenetic,/c/en/clonological
/c/en/allotopic,/c/en/clonological
/c/en/embryoplastic,/c/en/clonological
/c/en/zoo_blot,/c/en/clonological
/c/en/genocentric,/c/en/clonological
/c/en/remote_replication,/c/en/clonological
/c/en/genome_transplant,/c/en/clonological
/c/en/binary_clone,/c/en/clonological
/c/en/apoinducer,/c/en/clonological
/c/en/blastocyte,/c/en/clonological
/c/en/sarcosphere,/c/en/clonological
/c/en/original/neg,/c/en/clonological
/c/en/capromab,/c/en/clonological
/c/en/polyclone,/c/en/polyclone
/c/en/paraclone,/c/en/polyclone
/c/en/holoclone,/c/en/polyclone
/c/en/meroclone,/c/en/polyclone
/c/en/anticloning,/c/en/polyclone
/c/en/clone,/c/en/polyclone
/c/en/clonogenicity,/c/en/polyclone
/c/en/phellogen,/c/en/polyclone
/c/en/clonology,/c/en/polyclone
/c/en/polysomaty,/c/en/polyclone
/c/en/clonological,/c/en/polyclone
/c/en/bfipu,/c/en/polyclone
/c/en/uiaf,/c/en/polyclone
/c/en/cell,/c/en/polyclone
/c/en/chondroblast,/c/en/polyclone
/c/en/biclonal,/c/en/polyclone
/c/en/sendai_virus,/c/en/polyclone
/c/en/heterokaryon,/c/en/polyclone
/c/en/polysomatic,/c/en/polyclone
/c/en/prechondroblast,/c/en/polyclone
/c/en/autolysin,/c/en/polyclone
/c/en/avotermin,/c/en/polyclone
/c/en/cytoglobin,/c/en/polyclone
/c/en/polyembryonate,/c/en/polyclone
/c/en/cellulation,/c/en/polyclone
/c/en/histodifferentiation,/c/en/polyclone
/c/en/hold_place,/c/en/polyclone
/c/en/nucleofection,/c/en/polyclone
/c/en/polyclonal,/c/en/polyclone
/c/en/merenchyma,/c/en/polyclone
/c/en/genome_transplant,/c/en/polyclone
/c/en/biological_cell,/c/en/polyclone
/c/en/telecloning,/c/en/polyclone
/c/en/akaryocyte,/c/en/polyclone
/c/en/probasin,/c/en/polyclone
/c/en/ligandome,/c/en/polyclone
/c/en/tenocyte,/c/en/polyclone
/c/en/histography,/c/en/polyclone
/c/en/mixoploid,/c/en/polyclone
/c/en/embryoblast,/c/en/polyclone
/c/en/target_cell,/c/en/polyclone
/c/en/segrosome,/c/en/polyclone
/c/en/polar_body,/c/en/polyclone
/c/en/homocellular,/c/en/polyclone
/c/en/genetic_material,/c/en/polyclone
/c/en/trogocytosis,/c/en/polyclone
/c/en/transductant,/c/en/polyclone
/c/en/amnioblast,/c/en/polyclone
/c/en/carry_around,/c/en/polyclone
/c/en/heterocellular,/c/en/polyclone
/c/en/live_tissue,/c/en/polyclone
/c/en/deoxyribonucleoprotein,/c/en/polyclone
/c/en/epsin,/c/en/polyclone
/c/en/isolysis,/c/en/polyclone
/c/en/regulome,/c/en/polyclone
/c/en/microcompartment,/c/en/polyclone
/c/en/basement_membrane,/c/en/polyclone
/c/en/octoploid,/c/en/polyclone
/c/en/dendrimersome,/c/en/polyclone
/c/en/meristemoid,/c/en/polyclone
/c/en/enteroblast,/c/en/polyclone
/c/en/nulliploid,/c/en/polyclone
/c/en/achromatophil,/c/en/polyclone
/c/en/reversine,/c/en/polyclone
/c/en/monocellular,/c/en/polyclone
/c/en/cytoplasmic_determinant,/c/en/polyclone
/c/en/immunoblast,/c/en/polyclone
/c/en/fibrocyte,/c/en/polyclone
/c/en/scramblase,/c/en/polyclone
/c/en/preadipose,/c/en/polyclone
/c/en/blastocyte,/c/en/polyclone
/c/en/daughter_cell,/c/en/polyclone
/c/en/small_space,/c/en/polyclone
/c/en/alarmin,/c/en/polyclone
/c/en/invasin,/c/en/polyclone
/c/en/homer_wright_rosette,/c/en/polyclone
/c/en/oligocellular,/c/en/polyclone
/c/en/germogen,/c/en/polyclone
/c/en/immunosurgery,/c/en/polyclone
/c/en/picropodophyllin,/c/en/polyclone
/c/en/somatopleure,/c/en/polyclone
/c/en/germ_layer,/c/en/polyclone
/c/en/western_blot_analysis,/c/en/polyclone
/c/en/myocardiocyte,/c/en/polyclone
/c/en/arthrospore,/c/en/polyclone
/c/en/northern_blot_analysis,/c/en/polyclone
/c/en/porosome,/c/en/polyclone
/c/en/acroblast,/c/en/polyclone
/c/en/complement_system,/c/en/polyclone
/c/en/cotransduction,/c/en/polyclone
/c/en/abembryonic,/c/en/polyclone
/c/en/paranodin,/c/en/polyclone
/c/en/tissueless,/c/en/polyclone
/c/en/synergid,/c/en/polyclone
/c/en/secondary_cell_wall,/c/en/polyclone
/c/en/trypanin,/c/en/polyclone
/c/en/oprelvekin,/c/en/polyclone
/c/en/tissue,/c/en/polyclone
/c/en/plasmablast,/c/en/polyclone
/c/en/binary_clone,/c/en/polyclone
/c/en/anticloning,/c/en/anticloning
/c/en/clone,/c/en/anticloning
/c/en/clonology,/c/en/anticloning
/c/en/paraclone,/c/en/anticloning
/c/en/holoclone,/c/en/anticloning
/c/en/meroclone,/c/en/anticloning
/c/en/clonological,/c/en/anticloning
/c/en/polyclone,/c/en/anticloning
/c/en/telecloning,/c/en/anticloning
/c/en/clonemate,/c/en/anticloning
/c/en/clonogenicity,/c/en/anticloning
/c/en/antigene,/c/en/anticloning
/c/en/antigenome,/c/en/anticloning
/c/en/gene_base,/c/en/anticloning
/c/en/génétiques,/c/en/anticloning
/c/en/molecular_knife,/c/en/anticloning
/c/en/genetic,/c/en/anticloning
/c/en/isogeneic,/c/en/anticloning
/c/en/copy_number_variation,/c/en/anticloning
/c/en/famiclone,/c/en/anticloning
/c/en/copy_number_polymorphism,/c/en/anticloning
/c/en/génétique,/c/en/anticloning
/c/en/extragenomic,/c/en/anticloning
/c/en/cisgenic,/c/en/anticloning
/c/en/demogenetic,/c/en/anticloning
/c/en/genetic_material,/c/en/anticloning
/c/en/gene,/c/en/anticloning
/c/en/laminopathy,/c/en/anticloning
/c/en/antioncogene,/c/en/anticloning
/c/en/nullizygous,/c/en/anticloning
/c/en/nucleotidylexotransferase,/c/en/anticloning
/c/en/algeny,/c/en/anticloning
/c/en/genocentric,/c/en/anticloning
/c/en/binary_clone,/c/en/anticloning
/c/en/deoxynucleotidyltransferase,/c/en/anticloning
/c/en/junk_dna,/c/en/anticloning
/c/en/retroduplication,/c/en/anticloning
/c/en/cloners,/c/en/anticloning
/c/en/marker_gene,/c/en/anticloning
/c/en/cotransduction,/c/en/anticloning
/c/en/genetic_code,/c/en/anticloning
/c/en/demogenetics,/c/en/anticloning
/c/en/epimutation,/c/en/anticloning
/c/en/hybridogenesis,/c/en/anticloning
/c/en/epigenotype,/c/en/anticloning
/c/en/midblastula,/c/en/anticloning
/c/en/haplodeficient,/c/en/anticloning
/c/en/genomicist,/c/en/anticloning
/c/en/allotopic,/c/en/anticloning
/c/en/diseasome,/c/en/anticloning
/c/en/reproductive_clone,/c/en/anticloning
/c/en/tetramutant,/c/en/anticloning
/c/en/open_read_frame,/c/en/anticloning
/c/en/heterokaryon,/c/en/anticloning
/c/en/giant_virus,/c/en/anticloning
/c/en/bithorax_complex,/c/en/anticloning
/c/en/horizontal_gene_transfer,/c/en/anticloning
/c/en/heteroallele,/c/en/anticloning
/c/en/lethal_gene,/c/en/anticloning
/c/en/cisgenesis,/c/en/anticloning
/c/en/autoregulatory_loop,/c/en/anticloning
/c/en/central_dogma,/c/en/anticloning
/c/en/zoo_blot,/c/en/anticloning
/c/en/extragenetic,/c/en/anticloning
/c/en/artificial_selection,/c/en/anticloning
/c/en/point_mutation,/c/en/anticloning
/c/en/reprogenetics,/c/en/anticloning
/c/en/homoallele,/c/en/anticloning
/c/en/biohacker,/c/en/anticloning
/c/en/pangene,/c/en/anticloning
/c/en/génome,/c/en/anticloning
/c/en/polyallelism,/c/en/anticloning
/c/en/genome,/c/en/anticloning
/c/en/retroposition,/c/en/anticloning
/c/en/monocopy,/c/en/anticloning
/c/en/nick_translation,/c/en/anticloning
/c/en/genetically,/c/en/anticloning
/c/en/microsynteny,/c/en/anticloning
/c/en/macrosynteny,/c/en/anticloning
/c/en/spadetail,/c/en/anticloning
/c/en/exon_shuffle,/c/en/anticloning
/c/en/genetics,/c/en/anticloning
/c/en/physical_map,/c/en/anticloning
/c/en/polyallelic,/c/en/anticloning
/c/en/antiduping,/c/en/anticloning
/c/en/backmutation,/c/en/anticloning
/c/en/pleiohomeotic,/c/en/anticloning
/c/en/ancestim,/c/en/anticloning
/c/en/endoduplication,/c/en/anticloning
/c/en/gene_product,/c/en/anticloning
/c/en/sendai_virus,/c/en/anticloning
/c/en/edward_syndrome,/c/en/anticloning
/c/en/polygene,/c/en/anticloning
/c/en/retroposon,/c/en/anticloning
/c/en/pseudoexon,/c/en/anticloning
/c/en/usherin,/c/en/anticloning
/c/en/coadapted,/c/en/anticloning
/c/en/pregenetic,/c/en/anticloning
/c/en/clonal,/c/en/anticloning
/c/en/heteroploid,/c/en/anticloning
