/c/en/illegal_immigration,/c/en/illegal_immigration
/c/en/international_crime,/c/en/illegal_immigration
/c/en/illegal_immigrant,/c/en/illegal_immigration
/c/en/illegal_alien,/c/en/illegal_immigration
/c/en/undocumented_immigrant,/c/en/illegal_immigration
/c/en/immd,/c/en/illegal_immigration
/c/en/immd_gov_hk,/c/en/illegal_immigration
/c/en/immigration,/c/en/illegal_immigration
/c/en/antiimmigrant,/c/en/illegal_immigration
/c/en/immigrantes,/c/en/illegal_immigration
/c/en/emigrant/neg,/c/en/illegal_immigration
/c/en/immigrant,/c/en/illegal_immigration
/c/en/illegals,/c/en/illegal_immigration
/c/en/in_migration,/c/en/illegal_immigration
/c/en/undocumented,/c/en/illegal_immigration
/c/en/human_traffic,/c/en/illegal_immigration
/c/en/restrictionism,/c/en/illegal_immigration
/c/en/migrant,/c/en/illegal_immigration
/c/en/drug_traffic,/c/en/illegal_immigration
/c/en/gay_marriage,/c/en/illegal_immigration
/c/en/self_deportation,/c/en/illegal_immigration
/c/en/racial_profile,/c/en/illegal_immigration
/c/en/narcotrafficker,/c/en/illegal_immigration
/c/en/sham_marriage,/c/en/illegal_immigration
/c/en/restrictionist,/c/en/illegal_immigration
/c/en/nativist,/c/en/illegal_immigration
/c/en/slave_traffic,/c/en/illegal_immigration
/c/en/brain_gain,/c/en/illegal_immigration
/c/en/narco_traffic,/c/en/illegal_immigration
/c/en/criminal_act,/c/en/illegal_immigration
/c/en/guest_worker,/c/en/illegal_immigration
/c/en/drunk_drive,/c/en/illegal_immigration
/c/en/countertrafficking,/c/en/illegal_immigration
/c/en/marriage_equality,/c/en/illegal_immigration
/c/en/person_trafficker,/c/en/illegal_immigration
/c/en/deportation,/c/en/illegal_immigration
/c/en/border_cross,/c/en/illegal_immigration
/c/en/gay_marry,/c/en/illegal_immigration
/c/en/mexifornication,/c/en/illegal_immigration
/c/en/smuggler,/c/en/illegal_immigration
/c/en/refugee_regatta,/c/en/illegal_immigration
/c/en/iilegal,/c/en/illegal_immigration
/c/en/office_pool,/c/en/illegal_immigration
/c/en/antinativist,/c/en/illegal_immigration
/c/en/migrant_worker,/c/en/illegal_immigration
/c/en/illegal,/c/en/illegal_immigration
/c/en/outmigrant,/c/en/illegal_immigration
/c/en/person_smuggler,/c/en/illegal_immigration
/c/en/narcotrafficking,/c/en/illegal_immigration
/c/en/narcoterrorism,/c/en/illegal_immigration
/c/en/lawbreaker,/c/en/illegal_immigration
/c/en/gun_right,/c/en/illegal_immigration
/c/en/land_immigrant,/c/en/illegal_immigration
/c/en/pro_control,/c/en/illegal_immigration
/c/en/antismuggler,/c/en/illegal_immigration
/c/en/anchor_baby,/c/en/illegal_immigration
/c/en/black_economy,/c/en/illegal_immigration
/c/en/deport,/c/en/illegal_immigration
/c/en/gunrunning,/c/en/illegal_immigration
/c/en/career_criminal,/c/en/illegal_immigration
/c/en/hate_crime,/c/en/illegal_immigration
/c/en/gunrunner,/c/en/illegal_immigration
/c/en/smuggle,/c/en/illegal_immigration
/c/en/domestic_partnership,/c/en/illegal_immigration
/c/en/inmigrant,/c/en/illegal_immigration
/c/en/self_deport,/c/en/illegal_immigration
/c/en/illegal_action,/c/en/illegal_immigration
/c/en/deportable,/c/en/illegal_immigration
/c/en/identity_theft,/c/en/illegal_immigration
/c/en/person_smuggle,/c/en/illegal_immigration
/c/en/migrantes,/c/en/illegal_immigration
/c/en/asylum_seek,/c/en/illegal_immigration
/c/en/antismuggling,/c/en/illegal_immigration
/c/en/trafficker,/c/en/illegal_immigration
/c/en/same_sex_marriage,/c/en/illegal_immigration
/c/en/marriage_lite,/c/en/illegal_immigration
/c/en/overstayer,/c/en/illegal_immigration
/c/en/money_launder,/c/en/illegal_immigration
/c/en/asylum_seeker,/c/en/illegal_immigration
/c/en/gun_control,/c/en/illegal_immigration
/c/en/legalization,/c/en/illegal_immigration
/c/en/civil_union,/c/en/illegal_immigration
/c/en/inmigration,/c/en/illegal_immigration
/c/en/wetback,/c/en/illegal_immigration
/c/en/between_country,/c/en/illegal_immigration
/c/en/ariz,/c/en/illegal_immigration
/c/en/citizen/neg,/c/en/illegal_immigration
/c/en/terrorisme,/c/en/illegal_immigration
/c/en/climate_change,/c/en/illegal_immigration
/c/en/tax_evasion,/c/en/illegal_immigration
/c/en/border,/c/en/illegal_immigration
/c/en/child_labor,/c/en/illegal_immigration
/c/en/terrorism,/c/en/illegal_immigration
/c/en/state_sponsor_terrorism,/c/en/illegal_immigration
/c/en/antialien,/c/en/illegal_immigration
/c/en/insider_trade,/c/en/illegal_immigration
/c/en/capital_crime,/c/en/illegal_immigration
/c/en/arizonan,/c/en/illegal_immigration
/c/en/noncitizen,/c/en/illegal_immigration
/c/en/antiterror,/c/en/illegal_immigration
