dogmatism,3.0,pos
decrucifier,3.0,pos
polydeism,3.0,pos
religionist,3.0,pos
alogi,3.0,pos
antihedonism,3.0,pos
creationary,3.0,pos
paulicianism,3.0,pos
doctrinaire,3.0,pos
labadism,3.0,pos
muslim_person,3.0,pos
acosmism,3.0,pos
dogmatically,3.0,pos
malthusian,3.0,pos
cataphatism,3.0,pos
euhemeros,3.0,pos
guardian_deity,3.0,pos
baraminology,3.0,pos
traducian,3.0,pos
puseyism,3.0,pos
raison_d'être,3.0,pos
yazidism,3.0,pos
religious_education,3.0,pos
christian,3.0,pos
creative_power,3.0,pos
laveyan_satanist,3.0,pos
homoiousian,3.0,pos
wayside_pulpit,3.0,pos
mandaeism,3.0,pos
christianity,3.0,pos
article_of_faith,3.0,pos
xueta,3.0,pos
isagogics,3.0,pos
body_of_christ,3.0,pos
noahidism,3.0,pos
pantheistical,3.0,pos
bollandist,3.0,pos
revelationism,3.0,pos
creational,3.0,pos
new_religious_movement,3.0,pos
church_base,3.0,pos
doctrinal,3.0,pos
pantheology,3.0,pos
folk_religion,3.0,pos
semipelagianism,3.0,pos
divine_right,3.0,pos
biblethumping,3.0,pos
christlam,3.0,pos
tutelary_deity,3.0,pos
moravianism,3.0,pos
priestism,3.0,pos
transphenomenal,3.0,pos
polydeist,3.0,pos
enhypostasis,3.0,pos
interreligous,3.0,pos
catholicize,3.0,pos
world_religion,3.0,pos
churchism,3.0,pos
heteroousian,3.0,pos
physical_creation_event,3.0,pos
monoousian,3.0,pos
religious_person,3.0,pos
cocreator,3.0,pos
neo_druidism,3.0,pos
counterbiblical,3.0,neg
nondesigner,3.0,neg
apophatism,3.0,neg
unexistence,3.0,neg
noncreational,3.0,neg
non_creational,3.0,neg
religiophobia,3.0,neg
scientistic,3.0,neg
dysteleology,3.0,neg
christard,3.0,neg
i'm_atheist,3.0,neg
religiophobic,3.0,neg
evolutionally,3.0,neg
nonfoundationalism,3.0,neg
fossilism,3.0,neg
evolutionary_biologist,3.0,neg
ingenerable,3.0,neg
nonevangelical,3.0,neg
godless,3.0,neg
ufo_religionist,3.0,neg
antiprotestant,3.0,neg
paganic,3.0,neg
non_religious_person,3.0,neg
disbelieve,3.0,neg
exscriptural,3.0,neu
religious_doctrine,3.0,neu
theism,3.0,neu
religieuses,3.0,neu
création,3.0,neu
non_believer,3.0,neu
agnostic,3.0,neu
