url,word
http://www.google.com/#q=511275],511275]
http://www.google.com/#q=creationism,creationism
http://www.google.com/#q=creationistic,creationistic
http://www.google.com/#q=cdesign%20proponentsist,cdesign_proponentsist
http://www.google.com/#q=fixism,fixism
http://www.google.com/#q=creationist,creationist
http://www.google.com/#q=antidarwinist,antidarwinist
http://www.google.com/#q=evolutionary%20theory,evolutionary_theory
http://www.google.com/#q=creationists,creationists
http://www.google.com/#q=evolutionistic,evolutionistic
http://www.google.com/#q=darwinism,darwinism
http://www.google.com/#q=atheism/neg,atheism/neg
http://www.google.com/#q=evolutionism,evolutionism
http://www.google.com/#q=theory%20of%20evolution,theory_of_evolution
http://www.google.com/#q=atheism,atheism
http://www.google.com/#q=neo%20creo,neo_creo
http://www.google.com/#q=argument%20from%20design,argument_from_design
http://www.google.com/#q=evolutionist,evolutionist
http://www.google.com/#q=creotard,creotard
http://www.google.com/#q=raëlism,raëlism
http://www.google.com/#q=raelianism,raelianism
http://www.google.com/#q=darwinianism,darwinianism
http://www.google.com/#q=evolutionistically,evolutionistically
http://www.google.com/#q=religious%20naturalist,religious_naturalist
http://www.google.com/#q=theistical,theistical
http://www.google.com/#q=apeirotheism,apeirotheism
http://www.google.com/#q=religious%20naturalism,religious_naturalism
http://www.google.com/#q=ditheism,ditheism
http://www.google.com/#q=monolatrism,monolatrism
http://www.google.com/#q=creation%20science,creation_science
http://www.google.com/#q=tetratheism,tetratheism
http://www.google.com/#q=ignosticism,ignosticism
http://www.google.com/#q=ditheist,ditheist
http://www.google.com/#q=bible%20literalist,bible_literalist
http://www.google.com/#q=omnitheism,omnitheism
http://www.google.com/#q=intelligent%20design,intelligent_design
http://www.google.com/#q=religitard,religitard
http://www.google.com/#q=bitheism,bitheism
http://www.google.com/#q=spiritual%20naturalism,spiritual_naturalism
http://www.google.com/#q=binitarianism,binitarianism
http://www.google.com/#q=theistic,theistic
http://www.google.com/#q=ufo%20religion,ufo_religion
http://www.google.com/#q=multitheism,multitheism
http://www.google.com/#q=dawkinite,dawkinite
http://www.google.com/#q=apatheism,apatheism
http://www.google.com/#q=scope%20trial,scope_trial
http://www.google.com/#q=teleological%20argument,teleological_argument
http://www.google.com/#q=theism,theism
http://www.google.com/#q=ignostic,ignostic
http://www.google.com/#q=tetratheist,tetratheist
http://www.google.com/#q=omnitheist,omnitheist
http://www.google.com/#q=religious%20orientation,religious_orientation
http://www.google.com/#q=cosmotheism,cosmotheism
http://www.google.com/#q=atheophobia,atheophobia
http://www.google.com/#q=pseudoreligion,pseudoreligion
http://www.google.com/#q=ditheistic,ditheistic
http://www.google.com/#q=personal%20god,personal_god
http://www.google.com/#q=theopanism,theopanism
http://www.google.com/#q=duotheism,duotheism
http://www.google.com/#q=pascal's%20wager,pascal's_wager
http://www.google.com/#q=dawkinsian,dawkinsian
http://www.google.com/#q=cosmotheist,cosmotheist
http://www.google.com/#q=physicotheology,physicotheology
http://www.google.com/#q=hylotheism,hylotheism
http://www.google.com/#q=pantheology,pantheology
http://www.google.com/#q=religion/neg,religion/neg
http://www.google.com/#q=christianity,christianity
http://www.google.com/#q=atheist,atheist
http://www.google.com/#q=religion,religion
http://www.google.com/#q=neo%20pantheism,neo_pantheism
http://www.google.com/#q=atheistic%20belief,atheistic_belief
http://www.google.com/#q=atheophobe,atheophobe
http://www.google.com/#q=kathenotheism,kathenotheism
http://www.google.com/#q=transtheistic,transtheistic
http://www.google.com/#q=pseudoscience,pseudoscience
http://www.google.com/#q=believe%20in%20god/neg,believe_in_god/neg
http://www.google.com/#q=atheous,atheous
http://www.google.com/#q=spiritual%20naturalist,spiritual_naturalist
http://www.google.com/#q=atheological,atheological
http://www.google.com/#q=cataphatism,cataphatism
http://www.google.com/#q=pseudoscientifically,pseudoscientifically
http://www.google.com/#q=secular%20progressivism,secular_progressivism
http://www.google.com/#q=misreligion,misreligion
http://www.google.com/#q=parareligion,parareligion
http://www.google.com/#q=c%20decay,c_decay
http://www.google.com/#q=ufo%20religionist,ufo_religionist
http://www.google.com/#q=evolución,evolución
http://www.google.com/#q=christlam,christlam
http://www.google.com/#q=allotheism,allotheism
http://www.google.com/#q=panatheism,panatheism
http://www.google.com/#q=istical,istical
http://www.google.com/#q=polydeism,polydeism
http://www.google.com/#q=abrahamism,abrahamism
http://www.google.com/#q=suitheism,suitheism
http://www.google.com/#q=atheophobic,atheophobic
http://www.google.com/#q=religiopolitical,religiopolitical
http://www.google.com/#q=evolution,evolution
http://www.google.com/#q=darwinize,darwinize
http://www.google.com/#q=tritheist,tritheist
http://www.google.com/#q=revolution/neg,revolution/neg
http://www.google.com/#q=determinism/neg,determinism/neg
