immunisation,2,pos
prevent_disease,2,pos
select_agent,2,pos
preventive_care_event,2,pos
fight_disease,3,pos
immunize,2,pos
protection,2,pos
immunoprotection,2,pos
prévention,2,pos
danger/neg,2,neg
overvaccination,3,neg
dangerous/neg,2,neg
unsafe/neg,2,neg
vaccination,3,neu
for_health,2,neu
lockjaw_vaccine,2,neu
vaccine,3,neu
retrovaccination,3,neu
vaccinist,2,neu
reimmunization,2,neu
vaccinate,3,neu
vaccination_mark,2,neu
syphilization,2,neu
insafety,2,neu
reimmunize,2,neu
phylaxis,2,neu
smallpox_vaccine,2,neu
anthrax_vaccine,3,neu
sabin_vaccine,3,neu
sickness/neg,2,neu
measles,2,neu
hospital_stay,2,neu
antismallpox,2,neu
préventive,3,neu
anti_influenza,2,neu
